<svg id="cancel-24px_5_" data-name="cancel-24px (5)" xmlns="http://www.w3.org/2000/svg" width="43.42" height="43.42" viewBox="0 0 43.42 43.42">
  <path id="Path_5148" data-name="Path 5148" d="M0,0H43.42V43.42H0Z" fill="none" opacity="0.87"/>
  <path id="Path_5149" data-name="Path 5149" d="M20.092,2A18.092,18.092,0,1,0,38.183,20.092,18.075,18.075,0,0,0,20.092,2Zm7.779,25.871a1.8,1.8,0,0,1-2.551,0l-5.228-5.228-5.228,5.228a1.8,1.8,0,1,1-2.551-2.551l5.228-5.228-5.228-5.228a1.8,1.8,0,1,1,2.551-2.551l5.228,5.228,5.228-5.228a1.8,1.8,0,0,1,2.551,2.551l-5.228,5.228,5.228,5.228a1.835,1.835,0,0,1,0,2.551Z" transform="translate(1.618 1.618)" fill="#ff4753"/>
</svg>
