<svg id="person-24px_3_" data-name="person-24px (3)" xmlns="http://www.w3.org/2000/svg" width="39" height="39" viewBox="0 0 39 39">
  <path id="Path_5155" data-name="Path 5155" d="M0,0H39V39H0Z" fill="none"/>
  <path id="Path_5156" data-name="Path 5156" d="M17,17a6.5,6.5,0,1,0-6.5-6.5A6.5,6.5,0,0,0,17,17Zm0,3.25c-4.339,0-13,2.177-13,6.5v1.625A1.63,1.63,0,0,0,5.625,30h22.75A1.63,1.63,0,0,0,30,28.375V26.75C30,22.427,21.339,20.25,17,20.25Z" transform="translate(2.5 2.5)" fill="#525253"/>
</svg>
