<svg id="Component_3_1" data-name="Component 3 – 1" xmlns="http://www.w3.org/2000/svg" width="16.819" height="16.819" viewBox="0 0 16.819 16.819">
  <g id="Group_320" data-name="Group 320">
    <path id="Path_404" data-name="Path 404" d="M10.409,2a8.409,8.409,0,1,0,8.409,8.409A8.434,8.434,0,0,0,10.409,2Zm2.985,11.6L9.964,11.494a.829.829,0,0,1-.4-.715V6.835A.648.648,0,0,1,10.2,6.2a.635.635,0,0,1,.631.631v3.742l3.229,1.943a.636.636,0,1,1-.664,1.085Z" transform="translate(-2 -2)" fill="#fff"/>
  </g>
</svg>
