<?xml version="1.0" encoding="UTF-8" standalone="no"?>
<!DOCTYPE svg PUBLIC "-//W3C//DTD SVG 1.1//EN" "http://www.w3.org/Graphics/SVG/1.1/DTD/svg11.dtd">
<svg version="1.1" id="Layer_1" xmlns="http://www.w3.org/2000/svg" xmlns:xlink="http://www.w3.org/1999/xlink" x="0px" y="0px" width="48px" height="48px" viewBox="0 0 48 48" enable-background="new 0 0 48 48" xml:space="preserve">  <image id="image0" width="48" height="48" x="0" y="0"
    href="data:image/png;base64,iVBORw0KGgoAAAANSUhEUgAAADAAAAAwCAMAAABg3Am1AAAABGdBTUEAALGPC/xhBQAAACBjSFJN
AAB6JgAAgIQAAPoAAACA6AAAdTAAAOpgAAA6mAAAF3CculE8AAAAS1BMVEUAAAAilfMilvQilvMh
lfMhlvMhlvMglvQglfQhl/MA//8hlvMhlfMhlvMhl/MglvMilvMhlvMAgP8hlvIhlfMgl/MglvIh
lvP///9d+W6QAAAAF3RSTlMAgIiBgoOFhoeEAZKTlJWWl5kCoZF/d/baluEAAAABYktHRBibaYUe
AAAAB3RJTUUH5AQPBAQtylh0DwAAALNJREFUSMft0MkKwzAMRVHPduZ0cPz/f1oohT5DFEn7aCc4
1wgbc49mrKMWwrfmzhfS/1G3EOMbINsERUDkJUVUFwlRkBQZUZQURV04RIOgGCdESVLM6mJBlCXF
qi42REVS7IicpHhoi+cL0Pjmi19QMaj8SRVPuvS70m9ICu9XJJn3i9LPSBLvJ53vv2TgffclkfdZ
6buTA++7Jz3vg9J3xPLeHEgO3n9RPV+osZZa7lHPB8p8IzX/wFeSAAAAJXRFWHRkYXRlOmNyZWF0
ZQAyMDIwLTA0LTE1VDA0OjA0OjQ1KzAwOjAwByuW9AAAACV0RVh0ZGF0ZTptb2RpZnkAMjAyMC0w
NC0xNVQwNDowNDo0NSswMDowMHZ2LkgAAAAASUVORK5CYII=" />
</svg>
